<svg width="437" height="61" viewBox="0 0 437 61" fill="none" xmlns="http://www.w3.org/2000/svg">
<path d="M36.5694 23.4708C37.3197 24.2211 37.912 25.0691 38.3511 25.9726L42.9077 21.416C42.3541 20.5849 41.7129 19.7951 40.9792 19.0606C34.9255 13.007 25.1104 13.007 19.0567 19.0606L6.27872 31.839C5.77189 25.1476 8.06496 18.2818 13.1711 13.176C22.4616 3.88529 37.5777 3.88529 46.8679 13.1751C47.5932 13.9012 48.2551 14.6652 48.8674 15.4559L53.2922 11.0318C52.6586 10.2568 51.9821 9.50572 51.2597 8.7833C39.5481 -2.92777 20.4906 -2.92777 8.77915 8.7833C-0.645767 18.2089 -2.47943 32.389 3.26552 43.6717L23.4664 23.4708C27.0847 19.8523 32.951 19.8523 36.5694 23.4708Z" fill="#08152D"/>
<path d="M56.771 16.3721L36.5695 36.5735C32.9512 40.1918 27.0848 40.1918 23.4664 36.5735C22.7161 35.8232 22.1239 34.9753 21.6848 34.0718L17.1282 38.6284C17.6818 39.4594 18.323 40.2495 19.0567 40.9833C25.1104 47.037 34.9255 47.037 40.9793 40.9833L53.7561 28.2065C54.2601 34.8956 51.9666 41.7594 46.8608 46.8651C37.5707 56.1551 22.4575 56.1584 13.1712 46.8719C12.4447 46.1454 11.7819 45.3797 11.169 44.5875L6.74402 49.0127C7.37803 49.7885 8.056 50.5403 8.77923 51.2636C20.4907 62.9751 39.5416 62.9684 51.2531 51.257C60.6786 41.8311 62.5164 27.6534 56.771 16.3721Z" fill="#5ABEA0"/>
<path d="M87.9292 45.8981C84.8371 45.8981 82.043 45.2315 79.5467 43.8982C77.0787 42.565 75.1356 40.7353 73.7172 38.4092C72.3272 36.0547 71.6322 33.4165 71.6322 30.4947C71.6322 27.5729 72.3272 24.9489 73.7172 22.6228C75.1356 20.2683 77.0787 18.4245 79.5467 17.0912C82.043 15.7579 84.8371 15.0913 87.9292 15.0913C91.0212 15.0913 93.8012 15.7579 96.2691 17.0912C98.7371 18.4245 100.68 20.2683 102.099 22.6228C103.517 24.9489 104.226 27.5729 104.226 30.4947C104.226 33.4165 103.517 36.0547 102.099 38.4092C100.68 40.7353 98.7371 42.565 96.2691 43.8982C93.8012 45.2315 91.0212 45.8981 87.9292 45.8981ZM87.9292 40.0261C89.6879 40.0261 91.2765 39.629 92.6949 38.8347C94.1132 38.012 95.2195 36.8773 96.0138 35.4306C96.8365 33.9839 97.2478 32.3386 97.2478 30.4947C97.2478 28.6508 96.8365 27.0055 96.0138 25.5588C95.2195 24.1121 94.1132 22.9916 92.6949 22.1973C91.2765 21.3746 89.6879 20.9633 87.9292 20.9633C86.1704 20.9633 84.5818 21.3746 83.1635 22.1973C81.7451 22.9916 80.6246 24.1121 79.802 25.5588C79.0077 27.0055 78.6105 28.6508 78.6105 30.4947C78.6105 32.3386 79.0077 33.9839 79.802 35.4306C80.6246 36.8773 81.7451 38.012 83.1635 38.8347C84.5818 39.629 86.1704 40.0261 87.9292 40.0261ZM122.3 15.6019C124.938 15.6019 127.222 16.0416 129.151 16.921C131.108 17.8004 132.611 19.0485 133.661 20.6655C134.71 22.2824 135.235 24.1972 135.235 26.4098C135.235 28.5941 134.71 30.5089 133.661 32.1542C132.611 33.7711 131.108 35.0193 129.151 35.8987C127.222 36.7497 124.938 37.1752 122.3 37.1752H116.3V45.3875H109.407V15.6019H122.3ZM121.917 31.5585C123.988 31.5585 125.562 31.1188 126.64 30.2394C127.718 29.3317 128.257 28.0551 128.257 26.4098C128.257 24.7362 127.718 23.4596 126.64 22.5803C125.562 21.6725 123.988 21.2186 121.917 21.2186H116.3V31.5585H121.917ZM153.049 15.6019C155.688 15.6019 157.971 16.0416 159.9 16.921C161.857 17.8004 163.361 19.0485 164.411 20.6655C165.46 22.2824 165.985 24.1972 165.985 26.4098C165.985 28.5941 165.46 30.5089 164.411 32.1542C163.361 33.7711 161.857 35.0193 159.9 35.8987C157.971 36.7497 155.688 37.1752 153.049 37.1752H147.05V45.3875H140.157V15.6019H153.049ZM152.666 31.5585C154.737 31.5585 156.312 31.1188 157.39 30.2394C158.468 29.3317 159.007 28.0551 159.007 26.4098C159.007 24.7362 158.468 23.4596 157.39 22.5803C156.312 21.6725 154.737 21.2186 152.666 21.2186H147.05V31.5585H152.666ZM185.746 45.8981C182.654 45.8981 179.86 45.2315 177.364 43.8982C174.896 42.565 172.953 40.7353 171.534 38.4092C170.144 36.0547 169.449 33.4165 169.449 30.4947C169.449 27.5729 170.144 24.9489 171.534 22.6228C172.953 20.2683 174.896 18.4245 177.364 17.0912C179.86 15.7579 182.654 15.0913 185.746 15.0913C188.838 15.0913 191.618 15.7579 194.086 17.0912C196.554 18.4245 198.498 20.2683 199.916 22.6228C201.334 24.9489 202.043 27.5729 202.043 30.4947C202.043 33.4165 201.334 36.0547 199.916 38.4092C198.498 40.7353 196.554 42.565 194.086 43.8982C191.618 45.2315 188.838 45.8981 185.746 45.8981ZM185.746 40.0261C187.505 40.0261 189.094 39.629 190.512 38.8347C191.93 38.012 193.037 36.8773 193.831 35.4306C194.654 33.9839 195.065 32.3386 195.065 30.4947C195.065 28.6508 194.654 27.0055 193.831 25.5588C193.037 24.1121 191.93 22.9916 190.512 22.1973C189.094 21.3746 187.505 20.9633 185.746 20.9633C183.988 20.9633 182.399 21.3746 180.981 22.1973C179.562 22.9916 178.442 24.1121 177.619 25.5588C176.825 27.0055 176.428 28.6508 176.428 30.4947C176.428 32.3386 176.825 33.9839 177.619 35.4306C178.442 36.8773 179.562 38.012 180.981 38.8347C182.399 39.629 183.988 40.0261 185.746 40.0261ZM226.201 45.3875L220.457 37.0901H220.117H214.117V45.3875H207.224V15.6019H220.117C222.755 15.6019 225.038 16.0416 226.967 16.921C228.925 17.8004 230.428 19.0485 231.478 20.6655C232.527 22.2824 233.052 24.1972 233.052 26.4098C233.052 28.6225 232.513 30.5373 231.435 32.1542C230.386 33.7428 228.882 34.9625 226.925 35.8136L233.605 45.3875H226.201ZM226.074 26.4098C226.074 24.7362 225.535 23.4596 224.457 22.5803C223.379 21.6725 221.804 21.2186 219.734 21.2186H214.117V31.601H219.734C221.804 31.601 223.379 31.1472 224.457 30.2394C225.535 29.3317 226.074 28.0551 226.074 26.4098ZM244.268 21.2186H234.737V15.6019H260.693V21.2186H251.161V45.3875H244.268V21.2186ZM277.136 45.8981C272.881 45.8981 269.562 44.7209 267.179 42.3664C264.825 40.0119 263.648 36.6504 263.648 32.2818V15.6019H270.541V32.0265C270.541 37.3596 272.753 40.0261 277.179 40.0261C279.335 40.0261 280.98 39.3878 282.115 38.1113C283.249 36.8064 283.817 34.7782 283.817 32.0265V15.6019H290.625V32.2818C290.625 36.6504 289.433 40.0119 287.05 42.3664C284.696 44.7209 281.391 45.8981 277.136 45.8981ZM324.754 15.6019V45.3875H319.095L304.245 27.3034V45.3875H297.437V15.6019H303.138L317.946 33.686V15.6019H324.754ZM331.801 15.6019H338.694V45.3875H331.801V15.6019ZM351.933 21.2186H342.402V15.6019H368.358V21.2186H358.826V45.3875H351.933V21.2186ZM372.067 15.6019H378.96V45.3875H372.067V15.6019ZM409.091 39.8559V45.3875H386.028V15.6019H408.538V21.1335H392.879V27.6013H406.708V32.9627H392.879V39.8559H409.091ZM424.362 45.8981C422.008 45.8981 419.724 45.5861 417.512 44.962C415.328 44.3095 413.569 43.4727 412.236 42.4515L414.576 37.2603C415.852 38.1964 417.37 38.9481 419.129 39.5155C420.887 40.0828 422.646 40.3665 424.405 40.3665C426.362 40.3665 427.809 40.0828 428.745 39.5155C429.681 38.9198 430.149 38.1397 430.149 37.1752C430.149 36.466 429.866 35.8845 429.298 35.4306C428.759 34.9484 428.05 34.5654 427.171 34.2817C426.32 33.9981 425.157 33.686 423.682 33.3456C421.412 32.8066 419.554 32.2677 418.108 31.7287C416.661 31.1897 415.413 30.3245 414.363 29.1331C413.342 27.9417 412.831 26.3531 412.831 24.3674C412.831 22.637 413.299 21.0768 414.235 19.6868C415.172 18.2684 416.576 17.1479 418.448 16.3253C420.349 15.5026 422.66 15.0913 425.384 15.0913C427.284 15.0913 429.142 15.3182 430.958 15.7721C432.773 16.226 434.362 16.8784 435.724 17.7295L433.596 22.9632C430.844 21.403 428.093 20.6229 425.341 20.6229C423.412 20.6229 421.98 20.935 421.044 21.559C420.136 22.1831 419.682 23.0058 419.682 24.027C419.682 25.0482 420.207 25.8141 421.256 26.3247C422.334 26.807 423.965 27.2892 426.15 27.7715C428.419 28.3104 430.277 28.8494 431.724 29.3884C433.171 29.9274 434.404 30.7784 435.426 31.9414C436.475 33.1045 437 34.6789 437 36.6646C437 38.3666 436.518 39.9268 435.553 41.3452C434.617 42.7352 433.199 43.8415 431.298 44.6641C429.398 45.4868 427.086 45.8981 424.362 45.8981Z" fill="#08152D"/>
</svg>
