<svg width="48" height="43" viewBox="0 0 48 43" fill="none" xmlns="http://www.w3.org/2000/svg">
<path fill-rule="evenodd" clip-rule="evenodd" d="M40.4723 2.90045L24.0063 31.5025L16.2449 17.1061H20.7452L24.1906 23.1589L31.5263 10.2717H21.3397L40.4723 2.90045ZM9.86053 17.1061L24.1906 42.2806C32.2535 28.1162 40.2826 14.1266 48 -1.14441e-05L42.426 2.14777L23.9685 34.2088L14.748 17.1061H9.86053Z" fill="url(#paint0_linear)"/>
<path fill-rule="evenodd" clip-rule="evenodd" d="M7.21844 30.1047L12.8029 22.2753L14.6961 25.6007L11.489 30.1047H7.21844ZM9.86054 17.1061L0 30.1047H5.48389L12.0331 20.9229L9.86054 17.1061Z" fill="url(#paint1_linear)"/>
<defs>
<linearGradient id="paint0_linear" x1="9.86053" y1="21.1403" x2="48" y2="21.1403" gradientUnits="userSpaceOnUse">
<stop stop-color="#F57F52"/>
<stop offset="0.322581" stop-color="#EF353E"/>
<stop offset="0.698925" stop-color="#CF1A38"/>
<stop offset="1" stop-color="#7E1436"/>
</linearGradient>
<linearGradient id="paint1_linear" x1="3.79541" y1="32.6968" x2="18.7842" y2="12.7643" gradientUnits="userSpaceOnUse">
<stop stop-color="#F57F52"/>
<stop offset="0.322581" stop-color="#EF353E"/>
<stop offset="0.698925" stop-color="#CF1A38"/>
<stop offset="1" stop-color="#7E1436"/>
</linearGradient>
</defs>
</svg>
